<?xml version="1.0" encoding="UTF-8"?>
<svg width="30px" height="30px" viewBox="0 0 30 30" version="1.1" xmlns="http://www.w3.org/2000/svg" xmlns:xlink="http://www.w3.org/1999/xlink">
    <!-- Generator: Sketch 62 (91390) - https://sketch.com -->
    <title>Icons/Line/Heart</title>
    <desc>Created with Sketch.</desc>
    <defs>
        <path d="M18,3 C26.2842712,3 33,9.71572875 33,18 C33,26.2842712 26.2842712,33 18,33 C9.71572875,33 3,26.2842712 3,18 C3,9.71572875 9.71572875,3 18,3 Z M18.5,15.75 L17.5,15.75 C16.9477153,15.75 16.5,16.1977153 16.5,16.75 L16.5,16.75 L16.5,24.5 C16.5,25.0522847 16.9477153,25.5 17.5,25.5 L17.5,25.5 L18.5,25.5 C19.0522847,25.5 19.5,25.0522847 19.5,24.5 L19.5,24.5 L19.5,16.75 C19.5,16.1977153 19.0522847,15.75 18.5,15.75 L18.5,15.75 Z M18.5,10.5 L17.5,10.5 C16.9477153,10.5 16.5,10.9477153 16.5,11.5 L16.5,11.5 L16.5,12.5 C16.5,13.0522847 16.9477153,13.5 17.5,13.5 L17.5,13.5 L18.5,13.5 C19.0522847,13.5 19.5,13.0522847 19.5,12.5 L19.5,12.5 L19.5,11.5 C19.5,10.9477153 19.0522847,10.5 18.5,10.5 L18.5,10.5 Z" id="path-1"></path>
    </defs>
    <g id="Designs" stroke="none" stroke-width="1" fill="none" fill-rule="evenodd">
        <g id="Homepage-2" transform="translate(-701.000000, -4472.000000)">
            <g id="Group-13" transform="translate(0.000000, 4167.000000)">
                <g id="PRICING" transform="translate(280.000000, 0.000000)">
                    <g id="Features" transform="translate(0.000000, 302.000000)">
                        <g id="Items">
                            <g id="Group-4-Copy-4" transform="translate(418.000000, 0.000000)">
                                <g id="Icons/Solid/Info">
                                    <mask id="mask-2" fill="white">
                                        <use xlink:href="#path-1"></use>
                                    </mask>
                                    <use id="Mask" fill-opacity="0" fill="#051033" fill-rule="evenodd" xlink:href="#path-1"></use>
                                    <g id="Colors/White/White" mask="url(#mask-2)" fill="#FFFFFF" fill-rule="evenodd">
                                        <polygon id="Base-color-Grey-/-White" points="0 0 36 0 36 36 0 36"></polygon>
                                    </g>
                                </g>
                            </g>
                        </g>
                    </g>
                </g>
            </g>
        </g>
    </g>
</svg>