<?xml version="1.0" encoding="UTF-8"?>
<svg width="130px" height="128px" viewBox="0 0 130 128" version="1.1" xmlns="http://www.w3.org/2000/svg" xmlns:xlink="http://www.w3.org/1999/xlink">
    <!-- Generator: Sketch 62 (91390) - https://sketch.com -->
    <title>Rectangle</title>
    <desc>Created with Sketch.</desc>
    <g id="Designs" stroke="none" stroke-width="1" fill="none" fill-rule="evenodd" opacity="0.100000001">
        <g id="Homepage-2" transform="translate(-280.000000, -2747.000000)" fill="#39495C" fill-rule="nonzero">
            <g id="Wat-ontvang-ik" transform="translate(280.000000, 2523.000000)">
                <g id="Features" transform="translate(0.000000, 224.000000)">
                    <g id="Items">
                        <g id="Group-4">
                            <rect id="Rectangle" x="0" y="0" width="130" height="128" rx="5"></rect>
                        </g>
                    </g>
                </g>
            </g>
        </g>
    </g>
</svg>